sr,first_name,last_name,shift_start,shift_end,per_hour_rate,emp_check_in_buffer,break_duration,email
1,Import,One,11:00,17:30,10,20,30,import1@example.com
2,Import,Two,13:00,17:30,20,10,30,import2@example.com
